5.528606033325195312e+01,6.513146209716796875e+01,6.719890594482421875e+01,8.383285522460937500e+01,7.475321960449218750e+01,1.209734191894531250e+02,5.253713226318359375e+01,3.692053604125976562e+01,7.320610046386718750e+01,7.631611633300781250e+01
6.974737548828125000e+01,1.328065338134765625e+02,4.713917541503906250e+01,5.658272552490234375e+01,4.320813369750976562e+01,8.671499633789062500e+01,6.759184265136718750e+01,1.083702545166015625e+02,6.612063598632812500e+01,7.491166687011718750e+01
9.567327117919921875e+01,1.025243835449218750e+02,3.690386581420898438e+01,4.334845733642578125e+01,7.915493774414062500e+01,1.012451477050781250e+02,7.093239593505859375e+01,4.750006484985351562e+01,5.124808883666992188e+01,6.040410232543945312e+01
6.135278701782226562e+01,5.286487197875976562e+01,4.603889846801757812e+01,6.410010528564453125e+01,5.818315887451171875e+01,6.287158584594726562e+01,9.330013275146484375e+01,6.699831390380859375e+01,7.367005920410156250e+01,5.615803527832031250e+01
4.607826995849609375e+01,1.033639831542968750e+02,7.163922119140625000e+01,6.922843933105468750e+01,5.086243438720703125e+01,8.804112243652343750e+01,6.030543136596679688e+01,9.228012847900390625e+01,6.997772216796875000e+01,9.738606262207031250e+01
6.718851470947265625e+01,6.276980590820312500e+01,5.734482574462890625e+01,4.427645111083984375e+01,7.420558929443359375e+01,6.246453857421875000e+01,3.935718154907226562e+01,6.723361968994140625e+01,5.808794403076171875e+01,5.886886596679687500e+01
8.929172515869140625e+01,1.045054473876953125e+02,7.350399780273437500e+01,1.150637664794921875e+02,1.265789337158203125e+02,8.786934661865234375e+01,6.427984619140625000e+01,6.097780227661132812e+01,6.169423675537109375e+01,7.352715301513671875e+01
7.248265838623046875e+01,7.718668365478515625e+01,8.705427551269531250e+01,7.064237976074218750e+01,8.933458709716796875e+01,7.141365051269531250e+01,3.739237213134765625e+01,7.163029479980468750e+01,3.716896820068359375e+01,6.547164154052734375e+01
6.105730438232421875e+01,4.010533523559570312e+01,7.890884399414062500e+01,7.870162200927734375e+01,1.058711853027343750e+02,6.689551544189453125e+01,6.102844619750976562e+01,8.456609344482421875e+01,1.318422088623046875e+02,4.608530426025390625e+01
6.742796325683593750e+01,6.442907714843750000e+01,5.849214172363281250e+01,7.068570709228515625e+01,8.605642700195312500e+01,6.349992752075195312e+01,3.950293350219726562e+01,5.137525177001953125e+01,5.841508865356445312e+01,6.556113433837890625e+01
5.166967773437500000e+01,6.720036315917968750e+01,6.962918090820312500e+01,7.939059448242187500e+01,8.811848449707031250e+01,5.646013259887695312e+01,7.048550415039062500e+01,6.522106170654296875e+01,7.407859039306640625e+01,9.787669372558593750e+01
4.713191986083984375e+01,7.042950439453125000e+01,4.841640853881835938e+01,4.720208740234375000e+01,5.807412338256835938e+01,4.684508514404296875e+01,6.882977294921875000e+01,8.864253234863281250e+01,5.340775299072265625e+01,9.492919921875000000e+01
1.282539825439453125e+02,7.539948272705078125e+01,8.135797882080078125e+01,1.091792526245117188e+02,6.231840896606445312e+01,9.193051910400390625e+01,7.309231567382812500e+01,5.340090560913085938e+01,9.640803527832031250e+01,5.550719070434570312e+01
6.732696533203125000e+01,8.739560699462890625e+01,6.649569702148437500e+01,5.095291900634765625e+01,6.477715301513671875e+01,4.527782440185546875e+01,8.143851470947265625e+01,6.575456237792968750e+01,8.946284484863281250e+01,3.850212860107421875e+01
6.004314041137695312e+01,4.454347991943359375e+01,6.920069122314453125e+01,5.312742614746093750e+01,8.508625793457031250e+01,6.039742660522460938e+01,7.352050781250000000e+01,3.617422103881835938e+01,5.742399215698242188e+01,3.978917694091796875e+01
6.463933563232421875e+01,3.991416931152343750e+01,4.842366409301757812e+01,8.649618530273437500e+01,6.888722229003906250e+01,6.008498001098632812e+01,7.431823730468750000e+01,4.359568023681640625e+01,5.375252532958984375e+01,8.145188140869140625e+01
9.271852874755859375e+01,4.206024932861328125e+01,8.503461456298828125e+01,8.317253875732421875e+01,8.041655731201171875e+01,8.485511016845703125e+01,6.155836486816406250e+01,6.290462493896484375e+01,5.621318817138671875e+01,5.336206054687500000e+01
7.671989440917968750e+01,5.520894622802734375e+01,4.842503738403320312e+01,7.240591430664062500e+01,5.617887115478515625e+01,7.239603424072265625e+01,4.613064956665039062e+01,8.774696350097656250e+01,9.275514221191406250e+01,8.801549530029296875e+01
6.434742736816406250e+01,8.499987030029296875e+01,4.936207580566406250e+01,3.969094467163085938e+01,7.652002716064453125e+01,9.185325622558593750e+01,1.005622711181640625e+02,6.357614898681640625e+01,3.760773849487304688e+01,6.909880828857421875e+01
8.675657653808593750e+01,4.361450576782226562e+01,5.199453353881835938e+01,7.756929779052734375e+01,6.539031982421875000e+01,6.806008148193359375e+01,8.267096710205078125e+01,4.446542739868164062e+01,6.065122604370117188e+01,6.407113647460937500e+01
6.227134704589843750e+01,9.048731231689453125e+01,3.807133483886718750e+01,8.717568969726562500e+01,5.684251403808593750e+01,8.238195037841796875e+01,1.163322219848632812e+02,7.857904052734375000e+01,1.215129241943359375e+02,8.389030456542968750e+01
7.217132568359375000e+01,4.843994140625000000e+01,8.577102661132812500e+01,7.295886230468750000e+01,9.826686096191406250e+01,7.142134094238281250e+01,6.232428741455078125e+01,5.792019271850585938e+01,7.027962493896484375e+01,6.989711761474609375e+01
8.513375854492187500e+01,6.446810913085937500e+01,7.708206939697265625e+01,4.669077301025390625e+01,6.796424102783203125e+01,7.212829589843750000e+01,9.146601867675781250e+01,5.938070678710937500e+01,9.424050903320312500e+01,5.526762390136718750e+01
7.763227844238281250e+01,9.046089935302734375e+01,4.080420303344726562e+01,6.166297912597656250e+01,6.498378753662109375e+01,1.029784469604492188e+02,4.820100402832031250e+01,5.523464202880859375e+01,5.999839401245117188e+01,5.761358642578125000e+01
4.992571258544921875e+01,1.047737350463867188e+02,7.875521087646484375e+01,8.822373962402343750e+01,6.941959381103515625e+01,5.372527313232421875e+01,6.335720825195312500e+01,7.703947448730468750e+01,6.015272521972656250e+01,4.322729110717773438e+01
6.701702880859375000e+01,8.386570739746093750e+01,6.394810104370117188e+01,7.001217651367187500e+01,5.676898574829101562e+01,5.424285507202148438e+01,6.385260772705078125e+01,4.129608154296875000e+01,1.227442474365234375e+02,5.350730133056640625e+01
8.561362457275390625e+01,5.283108520507812500e+01,4.633185577392578125e+01,5.668928527832031250e+01,9.814744567871093750e+01,4.245949554443359375e+01,7.074036407470703125e+01,1.155490875244140625e+02,6.582879638671875000e+01,7.034169006347656250e+01
1.033288497924804688e+02,4.205756378173828125e+01,4.059100341796875000e+01,7.978984832763671875e+01,6.684226989746093750e+01,9.144338226318359375e+01,6.646064758300781250e+01,7.176310729980468750e+01,5.637516784667968750e+01,4.078659820556640625e+01
4.237790298461914062e+01,7.106262207031250000e+01,3.945350265502929688e+01,1.024855499267578125e+02,6.459204864501953125e+01,5.834853363037109375e+01,7.595291900634765625e+01,7.160140991210937500e+01,9.721699523925781250e+01,8.320749664306640625e+01
1.176922302246093750e+02,7.578982543945312500e+01,3.494421768188476562e+01,4.466276931762695312e+01,6.672075653076171875e+01,9.442449188232421875e+01,5.325506210327148438e+01,3.835278320312500000e+01,7.807496643066406250e+01,5.920164871215820312e+01
8.113933563232421875e+01,6.660733795166015625e+01,6.424169921875000000e+01,4.673579025268554688e+01,6.061152648925781250e+01,1.235222396850585938e+02,8.364519500732421875e+01,8.907553863525390625e+01,9.889154815673828125e+01,7.847123718261718750e+01
6.367763137817382812e+01,6.228829574584960938e+01,4.872703552246093750e+01,1.253605880737304688e+02,6.076375961303710938e+01,7.711888885498046875e+01,8.124729919433593750e+01,7.868376922607421875e+01,5.779039001464843750e+01,9.551621246337890625e+01
9.253378295898437500e+01,6.459162902832031250e+01,7.406105804443359375e+01,3.978779220581054688e+01,1.090347137451171875e+02,6.065567779541015625e+01,4.866968536376953125e+01,9.530336761474609375e+01,5.146117019653320312e+01,4.622932815551757812e+01
5.209984970092773438e+01,7.751174163818359375e+01,8.710226440429687500e+01,1.094985504150390625e+02,6.724086761474609375e+01,5.977618026733398438e+01,4.935115814208984375e+01,7.888273620605468750e+01,4.364080810546875000e+01,5.405835342407226562e+01
6.636279296875000000e+01,6.475634002685546875e+01,8.910998535156250000e+01,8.099637603759765625e+01,9.410289001464843750e+01,6.939192199707031250e+01,7.212230682373046875e+01,9.533779907226562500e+01,5.974350738525390625e+01,1.012676544189453125e+02
6.727705383300781250e+01,8.992555999755859375e+01,3.390981292724609375e+01,5.344184875488281250e+01,1.298725585937500000e+02,7.655481719970703125e+01,5.350347137451171875e+01,6.447039794921875000e+01,5.282395553588867188e+01,6.682008361816406250e+01
7.073412322998046875e+01,4.349061203002929688e+01,4.885220718383789062e+01,4.590434265136718750e+01,8.069770812988281250e+01,8.887271881103515625e+01,6.482631683349609375e+01,6.707758331298828125e+01,1.228627166748046875e+02,6.762938690185546875e+01
7.344726562500000000e+01,8.759622955322265625e+01,1.164733047485351562e+02,7.690544891357421875e+01,8.988698577880859375e+01,6.361485290527343750e+01,8.344768524169921875e+01,1.315190887451171875e+02,7.536150360107421875e+01,4.918918991088867188e+01
8.696839141845703125e+01,6.244503021240234375e+01,7.264159393310546875e+01,3.903372192382812500e+01,8.277756500244140625e+01,8.518470001220703125e+01,4.097523117065429688e+01,8.706999969482421875e+01,5.876855468750000000e+01,6.596684265136718750e+01
8.650506591796875000e+01,6.479624176025390625e+01,5.319975662231445312e+01,6.273815155029296875e+01,9.934067535400390625e+01,6.317974472045898438e+01,6.904476928710937500e+01,4.484847640991210938e+01,6.328086471557617188e+01,7.157667541503906250e+01
4.288222503662109375e+01,6.506175994873046875e+01,5.886653900146484375e+01,5.513063049316406250e+01,4.428832626342773438e+01,5.930548095703125000e+01,5.888039398193359375e+01,8.741445922851562500e+01,5.842119216918945312e+01,5.830515289306640625e+01
1.162162246704101562e+02,5.187886810302734375e+01,4.976043319702148438e+01,3.815069198608398438e+01,5.700018692016601562e+01,5.466426086425781250e+01,5.524711608886718750e+01,1.348390045166015625e+02,9.690585327148437500e+01,7.152175140380859375e+01
5.246467971801757812e+01,7.840621185302734375e+01,7.704533386230468750e+01,6.030503845214843750e+01,7.326743316650390625e+01,3.686568832397460938e+01,7.651493835449218750e+01,5.127930068969726562e+01,8.490836334228515625e+01,8.608596038818359375e+01
4.343436431884765625e+01,1.082604446411132812e+02,6.833280944824218750e+01,4.835773468017578125e+01,7.071179199218750000e+01,5.343846511840820312e+01,7.532983398437500000e+01,7.008853149414062500e+01,7.524615478515625000e+01,1.234816589355468750e+02
6.372063064575195312e+01,7.618563079833984375e+01,3.925385284423828125e+01,4.553289031982421875e+01,6.061520385742187500e+01,1.279158706665039062e+02,9.301811218261718750e+01,6.124404907226562500e+01,4.749556732177734375e+01,5.907974243164062500e+01
6.233279418945312500e+01,7.451623535156250000e+01,4.710248184204101562e+01,1.051877059936523438e+02,8.743321228027343750e+01,7.244853210449218750e+01,4.222592163085937500e+01,1.245936813354492188e+02,6.125128173828125000e+01,4.828697967529296875e+01
9.117043304443359375e+01,4.310039901733398438e+01,6.149129104614257812e+01,8.493476104736328125e+01,4.336416625976562500e+01,7.533680725097656250e+01,7.970384979248046875e+01,8.159991455078125000e+01,9.902954864501953125e+01,9.917324066162109375e+01
8.098374938964843750e+01,1.046445388793945312e+02,6.128339385986328125e+01,6.630122375488281250e+01,7.105661773681640625e+01,4.799560928344726562e+01,3.989664077758789062e+01,6.003036499023437500e+01,7.797972106933593750e+01,9.313846588134765625e+01
5.903031921386718750e+01,6.964569091796875000e+01,4.915815353393554688e+01,8.732234191894531250e+01,6.439168548583984375e+01,1.075978469848632812e+02,8.125794982910156250e+01,5.859788131713867188e+01,9.130394744873046875e+01,8.049349212646484375e+01
7.288461303710937500e+01,9.058223724365234375e+01,6.483102416992187500e+01,7.893715667724609375e+01,7.133992004394531250e+01,7.970783996582031250e+01,1.090054473876953125e+02,7.543381500244140625e+01,6.612673950195312500e+01,1.094478378295898438e+02
6.220718002319335938e+01,4.911797714233398438e+01,7.829427337646484375e+01,6.102076721191406250e+01,6.257729339599609375e+01,4.247199249267578125e+01,1.004218673706054688e+02,6.135369873046875000e+01,5.452953720092773438e+01,6.370937347412109375e+01
5.296795272827148438e+01,5.424869155883789062e+01,1.206231231689453125e+02,7.886721801757812500e+01,7.151179504394531250e+01,1.087408599853515625e+02,6.077967453002929688e+01,6.570601654052734375e+01,7.497299194335937500e+01,4.539973068237304688e+01
7.526751708984375000e+01,6.403370666503906250e+01,7.469471740722656250e+01,8.084692382812500000e+01,6.241568374633789062e+01,8.389224243164062500e+01,7.202277374267578125e+01,7.129541015625000000e+01,6.454139709472656250e+01,9.030747985839843750e+01
1.077146835327148438e+02,9.575882720947265625e+01,9.096852874755859375e+01,7.169531250000000000e+01,6.845375061035156250e+01,8.747959136962890625e+01,9.109008789062500000e+01,9.692516326904296875e+01,9.302790832519531250e+01,5.761997604370117188e+01
4.189361953735351562e+01,5.852459335327148438e+01,8.166609191894531250e+01,8.812812805175781250e+01,6.460182952880859375e+01,7.055655670166015625e+01,6.622384643554687500e+01,6.480102539062500000e+01,7.621289062500000000e+01,6.340700912475585938e+01
8.752980804443359375e+01,4.997549819946289062e+01,7.386582946777343750e+01,7.142926025390625000e+01,5.442702484130859375e+01,8.549516296386718750e+01,6.525978088378906250e+01,8.110316467285156250e+01,6.580456542968750000e+01,7.485629272460937500e+01
8.235463714599609375e+01,7.788522338867187500e+01,7.872454071044921875e+01,5.990225982666015625e+01,7.175159454345703125e+01,7.060626983642578125e+01,6.154251098632812500e+01,6.910578155517578125e+01,6.787091827392578125e+01,4.092612457275390625e+01
9.238500976562500000e+01,8.242386627197265625e+01,6.036985015869140625e+01,5.965504455566406250e+01,6.733135223388671875e+01,9.548586273193359375e+01,6.465770721435546875e+01,1.037998123168945312e+02,1.066841888427734375e+02,7.255979156494140625e+01
7.887440490722656250e+01,9.080410003662109375e+01,3.885599136352539062e+01,6.589086151123046875e+01,6.834487152099609375e+01,6.585192108154296875e+01,4.495801162719726562e+01,7.756748962402343750e+01,6.547294616699218750e+01,7.398988342285156250e+01
8.032187652587890625e+01,8.251920318603515625e+01,8.225882720947265625e+01,8.682466125488281250e+01,7.771057128906250000e+01,1.004163894653320312e+02,1.285057067871093750e+02,8.054170227050781250e+01,6.464059448242187500e+01,8.738906097412109375e+01
7.952240753173828125e+01,4.109324264526367188e+01,6.252553558349609375e+01,6.779188537597656250e+01,6.772551727294921875e+01,6.302038574218750000e+01,6.651783752441406250e+01,7.333486175537109375e+01,4.002301788330078125e+01,8.535007476806640625e+01
7.122969055175781250e+01,9.379234313964843750e+01,1.247743988037109375e+02,1.246336975097656250e+02,1.172856140136718750e+02,8.233464050292968750e+01,6.757168579101562500e+01,5.143923950195312500e+01,9.042764282226562500e+01,9.829667663574218750e+01
7.787693023681640625e+01,5.023289871215820312e+01,6.031137466430664062e+01,5.672842788696289062e+01,7.344931793212890625e+01,1.128933258056640625e+02,8.172865295410156250e+01,8.873744201660156250e+01,5.038001251220703125e+01,8.648565673828125000e+01
5.762893676757812500e+01,9.527484130859375000e+01,9.858491516113281250e+01,1.354960327148437500e+02,1.026875152587890625e+02,1.153853759765625000e+02,5.255939102172851562e+01,7.818507385253906250e+01,7.188259887695312500e+01,5.784594726562500000e+01
6.558309173583984375e+01,9.992483520507812500e+01,5.146564483642578125e+01,6.307857894897460938e+01,8.235100555419921875e+01,1.111993484497070312e+02,9.411801910400390625e+01,1.063863601684570312e+02,7.647814941406250000e+01,5.111876678466796875e+01
4.148750686645507812e+01,7.315457916259765625e+01,8.542971801757812500e+01,6.808402252197265625e+01,6.813134765625000000e+01,5.185287857055664062e+01,4.002019119262695312e+01,4.716923522949218750e+01,7.215269470214843750e+01,6.944178771972656250e+01
6.605144500732421875e+01,5.306234741210937500e+01,5.668436050415039062e+01,6.096335983276367188e+01,5.606384658813476562e+01,8.097714233398437500e+01,8.363380432128906250e+01,3.658535003662109375e+01,4.499627685546875000e+01,7.334354400634765625e+01
4.531293106079101562e+01,5.099391937255859375e+01,1.251273727416992188e+02,7.644738769531250000e+01,5.269265365600585938e+01,7.019679260253906250e+01,1.220494232177734375e+02,5.047343063354492188e+01,6.984104156494140625e+01,3.974339294433593750e+01
6.919637298583984375e+01,6.691127777099609375e+01,9.814266967773437500e+01,6.122008895874023438e+01,1.149847717285156250e+02,5.060794448852539062e+01,7.934331512451171875e+01,7.043962860107421875e+01,6.132386016845703125e+01,8.439167022705078125e+01
9.535779571533203125e+01,7.096290588378906250e+01,1.390378570556640625e+02,1.299190216064453125e+02,6.184829330444335938e+01,5.430932235717773438e+01,9.581043243408203125e+01,8.765037536621093750e+01,9.294129180908203125e+01,4.049893569946289062e+01
6.655508422851562500e+01,7.163359832763671875e+01,8.693001556396484375e+01,9.285413360595703125e+01,1.037298202514648438e+02,8.473236846923828125e+01,8.579801177978515625e+01,3.829409790039062500e+01,7.228820800781250000e+01,8.356330871582031250e+01
6.918551635742187500e+01,6.672485351562500000e+01,6.124948883056640625e+01,5.221629714965820312e+01,6.367183303833007812e+01,6.576344299316406250e+01,5.172089385986328125e+01,5.982223892211914062e+01,6.969583129882812500e+01,6.596498107910156250e+01
1.008964157104492188e+02,6.384719085693359375e+01,4.786573028564453125e+01,1.146323699951171875e+02,1.021678466796875000e+02,6.080891799926757812e+01,9.310594940185546875e+01,5.627172470092773438e+01,4.874995040893554688e+01,4.041164779663085938e+01
9.490753173828125000e+01,7.197418975830078125e+01,4.964881134033203125e+01,4.714834594726562500e+01,5.628724670410156250e+01,5.961847686767578125e+01,6.708240509033203125e+01,5.593025207519531250e+01,6.887034606933593750e+01,8.564171600341796875e+01
7.584011840820312500e+01,8.318035888671875000e+01,7.984761047363281250e+01,6.530039978027343750e+01,4.629884719848632812e+01,1.026513061523437500e+02,8.278260803222656250e+01,6.707846069335937500e+01,6.169443893432617188e+01,3.668106842041015625e+01
7.251528930664062500e+01,7.836951446533203125e+01,5.078161621093750000e+01,1.149231491088867188e+02,8.642366027832031250e+01,7.754983520507812500e+01,1.018491439819335938e+02,9.994881439208984375e+01,8.824887847900390625e+01,1.280214080810546875e+02
9.216937255859375000e+01,1.024305953979492188e+02,6.728411865234375000e+01,9.655258178710937500e+01,8.684424591064453125e+01,6.440908813476562500e+01,4.815932846069335938e+01,4.743092727661132812e+01,6.637442779541015625e+01,5.038288497924804688e+01
6.927801513671875000e+01,8.322216033935546875e+01,5.611473464965820312e+01,1.180498123168945312e+02,6.821652984619140625e+01,6.527444458007812500e+01,8.737752532958984375e+01,7.140352630615234375e+01,9.161312866210937500e+01,6.225080871582031250e+01
7.523368835449218750e+01,5.023978805541992188e+01,4.873903656005859375e+01,8.460493469238281250e+01,7.179235839843750000e+01,8.565123748779296875e+01,1.295442504882812500e+02,8.835327911376953125e+01,1.227274551391601562e+02,3.730356216430664062e+01
7.067787170410156250e+01,9.815780639648437500e+01,1.053041687011718750e+02,5.447029876708984375e+01,8.886453247070312500e+01,6.568662261962890625e+01,7.461673736572265625e+01,5.245953369140625000e+01,6.214519119262695312e+01,7.027333831787109375e+01
8.095013427734375000e+01,4.966915893554687500e+01,6.305923843383789062e+01,5.462954711914062500e+01,6.253732299804687500e+01,4.468548583984375000e+01,6.376101303100585938e+01,4.620469284057617188e+01,7.821002960205078125e+01,6.251150131225585938e+01
7.544505310058593750e+01,6.598240661621093750e+01,4.114565658569335938e+01,7.589195251464843750e+01,4.714010238647460938e+01,6.897443389892578125e+01,1.271894760131835938e+02,7.546974182128906250e+01,7.670680999755859375e+01,1.004451675415039062e+02
8.194062042236328125e+01,7.464810943603515625e+01,9.345935821533203125e+01,8.364838409423828125e+01,8.416424560546875000e+01,6.079251861572265625e+01,6.208795928955078125e+01,7.339523315429687500e+01,8.847203063964843750e+01,6.286198425292968750e+01
4.711388778686523438e+01,9.752442932128906250e+01,5.144009399414062500e+01,4.474881744384765625e+01,6.421691894531250000e+01,6.048283004760742188e+01,4.903281784057617188e+01,5.217464828491210938e+01,8.465560150146484375e+01,7.557095336914062500e+01
4.069076538085937500e+01,9.215177154541015625e+01,8.448616027832031250e+01,4.197757339477539062e+01,6.563813018798828125e+01,1.169280776977539062e+02,7.824575042724609375e+01,5.362119293212890625e+01,7.002450561523437500e+01,6.769893646240234375e+01
6.814205169677734375e+01,8.551842498779296875e+01,9.711551666259765625e+01,4.723834991455078125e+01,7.781074523925781250e+01,4.569456100463867188e+01,4.167657089233398438e+01,5.928870391845703125e+01,5.985223388671875000e+01,7.381084442138671875e+01
1.060643692016601562e+02,9.688943481445312500e+01,6.824190521240234375e+01,6.709949493408203125e+01,1.204095458984375000e+02,4.067375946044921875e+01,5.659482574462890625e+01,8.436126708984375000e+01,5.880847167968750000e+01,5.572657775878906250e+01
1.363513641357421875e+02,8.771669769287109375e+01,6.921068572998046875e+01,8.733143615722656250e+01,4.260703277587890625e+01,4.205586624145507812e+01,5.275360488891601562e+01,3.907429122924804688e+01,6.702815246582031250e+01,6.074482727050781250e+01
7.061437988281250000e+01,5.602637481689453125e+01,6.282044219970703125e+01,8.053257751464843750e+01,9.987477874755859375e+01,6.134134292602539062e+01,4.556771850585937500e+01,6.515756225585937500e+01,1.118390274047851562e+02,9.444448852539062500e+01
1.107398757934570312e+02,6.559826660156250000e+01,8.282965087890625000e+01,5.626245498657226562e+01,8.564377593994140625e+01,6.320779800415039062e+01,6.983087158203125000e+01,4.935248565673828125e+01,6.328555297851562500e+01,7.802375793457031250e+01
5.080534744262695312e+01,1.088852310180664062e+02,6.803343200683593750e+01,9.845864868164062500e+01,7.634490203857421875e+01,7.201425170898437500e+01,1.194729385375976562e+02,4.632475280761718750e+01,5.054150009155273438e+01,8.681381988525390625e+01
8.413484191894531250e+01,4.736185836791992188e+01,8.675384521484375000e+01,8.348050689697265625e+01,8.105421447753906250e+01,9.246553802490234375e+01,5.389886474609375000e+01,7.818539428710937500e+01,8.169132232666015625e+01,9.816905212402343750e+01
4.067205810546875000e+01,6.232001876831054688e+01,6.215440368652343750e+01,3.986187744140625000e+01,9.046412658691406250e+01,4.679212951660156250e+01,8.818176269531250000e+01,9.291638946533203125e+01,7.088320159912109375e+01,4.589731216430664062e+01
9.676715850830078125e+01,4.916937255859375000e+01,6.164976501464843750e+01,3.774551773071289062e+01,4.861388397216796875e+01,8.693502807617187500e+01,6.810387420654296875e+01,8.588132476806640625e+01,6.008217239379882812e+01,7.141020202636718750e+01
7.271112060546875000e+01,5.933405685424804688e+01,7.223166656494140625e+01,6.596311950683593750e+01,5.790547561645507812e+01,8.546681213378906250e+01,6.971968841552734375e+01,7.467122650146484375e+01,5.907840347290039062e+01,7.275455474853515625e+01
9.848245239257812500e+01,9.254793548583984375e+01,8.554812622070312500e+01,5.717559051513671875e+01,7.123096466064453125e+01,6.175551986694335938e+01,1.030808639526367188e+02,6.150741958618164062e+01,5.819275283813476562e+01,6.787711334228515625e+01
4.561888122558593750e+01,8.064498138427734375e+01,6.002286148071289062e+01,9.399079132080078125e+01,7.191201782226562500e+01,6.215950012207031250e+01,8.290722656250000000e+01,7.070175933837890625e+01,5.358555984497070312e+01,1.064455108642578125e+02
7.390825653076171875e+01,8.352394866943359375e+01,9.138671112060546875e+01,2.882388687133789062e+01,7.079547882080078125e+01,6.446789550781250000e+01,9.481519317626953125e+01,1.104523696899414062e+02,9.130890655517578125e+01,4.493809890747070312e+01
8.479029846191406250e+01,4.788287353515625000e+01,9.166088867187500000e+01,6.681939697265625000e+01,9.086116027832031250e+01,6.778344726562500000e+01,8.399412536621093750e+01,1.106323623657226562e+02,9.106065368652343750e+01,9.136567687988281250e+01
8.584021759033203125e+01,6.493681335449218750e+01,6.783360290527343750e+01,6.547198486328125000e+01,5.708129882812500000e+01,6.737245178222656250e+01,8.302552795410156250e+01,4.758321380615234375e+01,1.013123931884765625e+02,5.036868286132812500e+01
